causality-randomization-permutation-tests-1-31-2018
…
In [1]:

# Import modules 

import numpy as np
from datascience import *
# from datascience_extensions import *
import seaborn as sns
sns.set_style("whitegrid")
%matplotlib inline

A summary of the methods for Table is here 

A tutorial for the datascience module is here 

A cheatsheet for the datascience module is here

 Cause and effect ¶
Data8, Spring 2017, Lec02

Computational and Inferential Thinking, Chapter 2

(For a better map, google John Snow Map Soho) or look here

 The Salk vaccine field trial ¶
Slides

 A cloud seeing experiment ¶
Google "cloud seeding"

 Cloud seeding experiment 

Decide whether conditions for seeding are right

Then toss a coin to decide whether or not to seed

Here are the data for an experiment with 52 clouds, 26 seeded and 26 unseeded

In [2]:

csd = Table.read_table("cloud-seeding-data.csv")
csd.show(5)
csd.num_rows

            rainfall treatment

            4.9      unseeded 

            4.9      unseeded 

            2745.6   seeded   

            1697.8   seeded   

            1656     seeded   

... (47 rows omitted)</p
…
