looking-at-pairs-of-features-part2-1-23-2018
…
import numpy as np
import pandas as pd
import matplotlib.pyplot as plots
import seaborn as sns
import importlib
import sys
from datascience import *
sns.set_style("whitegrid")
%matplotlib inline
plots.style.use('fivethirtyeight')

A summary of the methods to Table is here 

A tutorial for the datascience module is here 

A cheatsheet for the datascience module is here

Note

If you want to run this notebook on Azure, its easiest to upload the notebook and the file "datascience_extensions.py" (on Canvas) and then replace the cell below by a code cell with the single line

from datascience_extensions import *

In [72]:

# Import some new methods for class Table
# Add IDS directory to search path

course_dir = "/Users/wxs/Dropbox/IDS/Git-reps/STAT180/"
computing_dir = course_dir + "Computing"

if computing_dir not in sys.path:
    sys.path.append(computing_dir)

from datascience_extensions import *

# Reload the extensions after we make a change
# Importing it again does not work - a module is imported only once
module_name = "datascience_extensions"
importlib.reload(sys.modules[module_name])

Out[72]:

<module 'datascience_extensions' from '/Users/wxs/Dropbox/IDS/Git-reps/STAT180/Lectures/datascience_extensions.py'>

In [73]:

# Read titanic-table.csv from URL
titanic_table_url = "https://github.com/wstuetzle/STAT180/raw/master/Data/titanic3-table.csv"
titanic = Table.read_table(titanic_table_url)
# titanic.show(2)
titanic.shape()
titanic_sub = titanic.drop("name", "sibsp", "parch", "ticket", "fare", "cabin", "boat", 
                           "body", "home.dest").take_complete_rows()
titanic_sub.show(3)
titanic_sub.shape()

            pclass survived sex age embarked

            1      1        female 29     S       

            1      1        male   0.9167 S       

            1      0        female 2      S       

... (1041 rows omitted)</p
…
