sampling-2-6-2018
…
In [146]:

# Import modules 

import numpy as np
from datascience import *
# from datascience_extensions import *
import seaborn as sns
sns.set_style("whitegrid")
%matplotlib inline

A summary of the methods for Table is here 

A tutorial for the datascience module is here 

A cheatsheet for the datascience module is here

 Basics of sampling ¶
Slides

 An experiment to study the performance of sampling ¶
Here is a data set recording the flight delays for United Airlines flights taking off from SFO during the third quarter of 2015.

In [160]:

# delay_tab = Table.read_table("united.csv")
delay_tab = Table.read_table("https://github.com/wstuetzle/STAT180/raw/master/Lectures/Sampling/united.csv")
N = delay_tab.num_rows
delay_tab.show(5)
delay_tab.take(np.arange(N - 5, N))

            Date Flight Number Destination Delay

            6/1/15 73            HNL         257  

            6/1/15 217           EWR         28   

            6/1/15 237           STL         -3   

            6/1/15 250           SAN         0    

            6/1/15 267           PHL         64   

... (13727 rows omitted)</p
…
