hw07-2-13-2018-solution
…
Introduction to Data Science 
 Winter 2018

Homework 7¶
Due Saturday, 2/24/2018 , 3:00am

Please complete this notebook by filling in the cells provided. Once you are finished, "Save and Checkpoint" the notebook, download the ipynb and html versions to your computer, and submit the html version.

Total points: 135

In this homework you will practice the use of permutation tests to assess associations.

A summary of the methods to Table is here 

A tutorial for the datascience module is here 

A cheatsheet for the datascience module is here

In [1]:

from datascience import *
import numpy as np
import seaborn as sns
sns.set_style("whitegrid")
%matplotlib inline

We will work with the Birth Weight data that originally came from the Child Health and Development Studies conducted at the Oakland, CA, Kaiser Foundation Hospital. The features should be self explanatory. We will use permutation tests to assess associations between features.

In [2]:

baby = Table.read_table("baby.csv")
baby.show(5)
baby.num_rows

            Birth Weight Gestational Days Maternal Age Maternal Height Maternal Pregnancy Weight Maternal Smoker

            120          284              27           62              100                       False          

            113          282              33           64              135                       False          

            128          279              28           64              115                       True           

            108          282              23           67              125                       True           

            136          286              25           62              93                        False          

... (1169 rows omitted)</p
…
